<?xml version="1.0" encoding="UTF-8"?>
<svg width="124px" height="28px" viewBox="0 0 124 28" version="1.1" xmlns="http://www.w3.org/2000/svg" xmlns:xlink="http://www.w3.org/1999/xlink">
    <!-- Generator: Sketch 55 (78076) - https://sketchapp.com -->
    <title>Combined Shape</title>
    <desc>Created with Sketch.</desc>
    <g id="Logo" stroke="none" stroke-width="1" fill="none" fill-rule="evenodd">
        <g id="Logo/MainLogo" transform="translate(0.000000, -12.000000)" fill="#5D5D5D">
            <path d="M26.3024529,28.2215652 C26.5935777,27.6742041 27.1719201,27.3011805 27.8377254,27.3011805 C28.7962193,27.3011805 29.5734507,28.0742537 29.5734507,29.0276195 C29.5734507,29.9809854 28.7962193,30.7540585 27.8377254,30.7540585 C27.1719201,30.7540585 26.5935777,30.3810349 26.3024529,29.8336738 C26.0113282,30.3810349 25.4329858,30.7540585 24.7671805,30.7540585 C23.8086866,30.7540585 23.0314551,29.9809854 23.0314551,29.0276195 C23.0314551,28.0742537 23.8086866,27.3011805 24.7671805,27.3011805 C25.4329858,27.3011805 26.0113282,27.6742041 26.3024529,28.2215652 Z M50.7178538,16.249239 L50.8352625,16.249239 C51.979825,16.249239 53.0193378,16.7129463 53.7704784,17.4614341 C54.5223056,18.2085561 54.9891938,19.2418244 54.9891938,20.3802634 L54.9891938,22.3737268 C54.9891938,23.5121659 54.5223056,24.5461171 53.7704784,25.293239 C53.0193378,26.0410439 51.979825,26.5054341 50.8352625,26.5054341 L42.2815969,26.5054341 L42.2815969,22.2562634 L50.7178538,22.2562634 L50.7178538,20.4970439 L44.0509657,20.4970439 L44.0509657,18.5985073 L44.0509657,18.5991902 L47.3768571,16.249239 L50.7178538,16.249239 L50.7178538,18.6319024 L44.0509657,18.6319024 C44.0509657,14.9693659 47.0356168,12 50.7178538,12 L50.7178538,16.249239 Z M81.5468217,16.2490341 L87.7049391,16.2490341 C88.8495017,16.2490341 89.8883278,16.7134244 90.6394684,17.4612293 C91.3912957,18.2083512 91.8581838,19.2423024 91.8581838,20.3807415 L91.8581838,22.3742049 C91.8581838,23.5126439 91.3919823,24.5459122 90.6394684,25.2930341 C89.8883278,26.041522 88.8495017,26.5052293 87.7049391,26.5052293 L74.0391229,26.5052293 L74.0391229,26.5062537 L74.0391229,26.5055707 L72.9927442,26.5055707 C71.8481816,26.5055707 70.8086689,26.0411805 70.0575282,25.2940585 C69.3050144,24.5462537 68.8388128,23.5129854 68.8388128,22.3745463 L68.8388128,12.0008878 L73.1101528,12.0008878 L73.1101528,22.2570829 L74.0391229,22.2570829 L74.0391229,26.5052293 L73.1098782,26.5052293 L73.1098782,22.2567415 L87.5875305,22.2567415 L87.5875305,20.497522 L74.879247,20.497522 L74.879247,18.5784976 L74.879247,18.5791805 L79.9751938,16.2490341 L81.5468217,16.2490341 L81.5468217,18.6319024 L74.879247,18.6319024 C74.879247,14.9693659 77.8645847,12 81.5468217,12 L81.5468217,16.2490341 Z M3.76819934,37.2509463 C3.76819934,37.0645073 3.71876412,36.9245073 3.62332669,36.8302634 L3.00675969,36.2197268 C2.76782281,36.442361 2.61814396,36.5926049 2.55840975,36.6690927 C2.4094175,36.861678 2.33320487,37.0556293 2.33320487,37.2502634 C2.33320487,37.4469463 2.39980509,37.6074341 2.53369214,37.730361 C2.66620598,37.8532878 2.83373643,37.9154341 3.0355969,37.9154341 C3.23196456,37.9154341 3.40155482,37.851922 3.54848726,37.7255805 C3.69404651,37.6006049 3.76819934,37.4428488 3.76819934,37.2502634 L3.76819934,37.2509463 Z M8.78381395,37.0037268 C8.78381395,36.5249951 8.6313887,36.2852878 8.32447841,36.2852878 C8.07180952,36.2852878 7.78412403,36.4806049 7.46073533,36.871922 C7.21973865,37.1662634 7.02199779,37.4769951 6.86476633,37.8041171 L8.34576301,37.8041171 C8.46660465,37.8041171 8.57852049,37.7235317 8.67739092,37.5664585 C8.74811074,37.4537756 8.78381395,37.2666537 8.78381395,37.0044098 L8.78381395,37.0037268 Z M29.0783433,37.7003122 L29.0783433,36.9169951 C29.0783433,36.4205073 28.8771694,36.171922 28.4761949,36.171922 C28.2324518,36.171922 28.0669812,36.2545561 27.9825293,36.4170927 C27.9227951,36.535922 27.8918981,36.731239 27.8918981,37.0064585 C27.8918981,37.3267512 28.0216656,37.534361 28.2805138,37.6238244 C28.4198937,37.674361 28.685608,37.7003122 29.0783433,37.7003122 Z M42.9737586,38.5662634 C42.6888195,38.5601171 42.3695504,38.3846049 42.0186977,38.0417756 C41.7886866,38.3921171 41.4501927,38.5669463 41.0011561,38.5669463 L38.7662724,38.5669463 L38.7662724,37.8034341 L40.9544673,37.8034341 C41.2352868,37.8034341 41.3760399,37.7078244 41.3760399,37.515922 C41.3760399,37.4080195 41.3348439,37.3144585 41.257258,37.2325073 L39.5338915,35.4049951 L40.051588,34.8880195 L42.3558184,37.3178732 C42.5569922,37.5288976 42.6943123,37.6566049 42.7684651,37.6975805 C42.8810676,37.7610927 43.0437918,37.7966049 43.2525183,37.8041171 L44.3703034,37.8041171 C44.5831495,37.8041171 44.7314551,37.7604098 44.812474,37.6750439 C44.8955526,37.5889951 44.936062,37.4367024 44.936062,37.2202146 L44.936062,36.1732878 L45.7036811,36.1732878 L45.7036811,37.3253854 C45.7036811,37.6566049 45.6061838,37.9413854 45.4098162,38.1817756 C45.2004031,38.4385561 44.9346888,38.5683122 44.6106135,38.5683122 L43.3383433,38.5683122 L42.9895504,38.5683122 L42.9737586,38.5683122 L42.9737586,38.5662634 Z M26.6580775,37.823239 C26.6580775,38.4180683 26.4878007,38.9070439 26.1465604,39.2847024 C25.7922746,39.6773854 25.3198937,39.8733854 24.7294175,39.8733854 L23.5491517,39.8733854 C23.0218427,39.8733854 22.581732,39.6739707 22.2226401,39.2758244 C21.8772802,38.8927024 21.7042569,38.4358244 21.7042569,37.907922 L21.7042569,36.171922 L22.4540244,36.171922 L22.4540244,37.991922 C22.4540244,38.3149463 22.5810454,38.5833366 22.8337143,38.8005073 C23.0753976,39.0067512 23.3617099,39.1098732 23.6919646,39.1098732 L24.6806689,39.1098732 C25.01367,39.1098732 25.2979225,39.0047024 25.5354862,38.7964098 C25.7716766,38.5874341 25.8918317,38.318361 25.8918317,37.991922 L25.8918317,36.171922 L26.6587641,36.171922 L26.6587641,37.8225561 L26.6580775,37.823239 Z M16.23068,38.5669463 L16.23068,34.1135805 L16.981134,34.1135805 L16.981134,38.5669463 L16.23068,38.5669463 Z M46.9203367,36.1726049 L46.9354419,36.1726049 L46.9354419,37.3991415 C46.9951761,37.6368 47.2299934,37.7699707 47.6412669,37.7979707 C47.7717209,37.8061659 47.8959956,37.8034341 48.0271362,37.8007024 C48.8386977,37.7795317 49.4236811,37.6846049 49.7848328,37.5172878 C49.8150432,37.5029463 49.999052,37.4059707 50.3368594,37.2277268 C50.546959,37.1150439 50.8600487,36.9415805 51.2740687,36.7073366 C50.9932492,36.1227512 50.6348439,36.1760195 50.0759513,36.1760195 L48.3175681,36.1760195 L48.3175681,35.4207024 L50.3093953,35.4207024 C51.3509679,35.4207024 52.1089745,36.0448976 52.1089745,37.0938732 L50.3540244,38.0888976 C49.9427508,38.3224585 49.5108793,38.4686049 49.0584097,38.5246049 C48.8435039,38.551239 48.4095725,38.5662634 47.7573023,38.5669463 L47.7483765,38.5669463 C47.4352868,38.5669463 47.1208239,38.4822634 46.9354419,38.2070439 L46.9354419,39.8740683 L46.1527176,39.8740683 L46.1527176,38.4317268 L46.1527176,36.1726049 L46.9203367,36.1726049 Z M34.5017984,38.5669463 C34.2161728,38.5601171 33.8975903,38.3852878 33.5467375,38.0417756 C33.3167265,38.3921171 32.977546,38.5676293 32.5285094,38.5676293 L30.2943123,38.5676293 L30.2943123,37.8041171 L32.4818206,37.8041171 C32.7626401,37.8041171 32.9040797,37.7085073 32.9040797,37.515922 C32.9040797,37.4087024 32.8628837,37.3151415 32.7846113,37.2331902 L31.0619313,35.4049951 L31.5796279,34.8887024 L33.8838583,37.3185561 C34.0843455,37.5288976 34.2223522,37.6566049 34.296505,37.6982634 C34.4091074,37.7610927 34.5711451,37.7966049 34.7805581,37.8048 L35.8983433,37.8048 C36.1105028,37.8048 36.2588084,37.7610927 36.3398272,37.6757268 C36.4229059,37.5889951 36.4641019,37.4367024 36.4641019,37.2202146 L36.4641019,36.1739707 L37.2317209,36.1739707 L37.2317209,37.3260683 C37.2317209,37.6572878 37.1342237,37.9420683 36.937856,38.1817756 C36.7277564,38.439239 36.4620421,38.5683122 36.1386534,38.5683122 L34.8663832,38.5683122 L34.5175903,38.5683122 L34.5017984,38.5683122 L34.5017984,38.5669463 Z M29.8459623,38.5594341 L29.8459623,39.8733854 L29.0639247,39.8733854 L29.0639247,38.4610927 C28.4329391,38.4597268 27.9729169,38.3750439 27.6859181,38.206361 C27.3000487,37.9809951 27.1071141,37.5753366 27.1071141,36.9880195 C27.1071141,36.3501659 27.2595393,35.9028488 27.5637032,35.6460683 C27.7497719,35.4883122 28.0628616,35.4090927 28.5002259,35.4090927 C29.0831495,35.4090927 29.4710786,35.6515317 29.6674463,36.1377756 C29.7869147,36.4403122 29.8459623,36.927239 29.8459623,37.6026537 L29.8459623,37.7180683 L29.8459623,38.5601171 L29.8459623,38.5594341 Z M19.4020864,37.7003122 L19.4020864,36.9169951 C19.4020864,36.4205073 19.2009125,36.171922 18.799938,36.171922 C18.5555083,36.171922 18.3893511,36.2545561 18.3048992,36.4170927 C18.2458516,36.535922 18.2156412,36.731239 18.2156412,37.0064585 C18.2156412,37.3267512 18.344722,37.534361 18.6028837,37.6238244 C18.7429502,37.674361 19.0086645,37.7003122 19.4020864,37.7003122 Z M20.1690188,38.5730927 L20.1690188,39.8733854 L19.3862946,39.8733854 L19.3862946,38.4610927 C18.7559956,38.4597268 18.2959734,38.3750439 18.0082879,38.206361 C17.6237918,37.9809951 17.4301705,37.5753366 17.4301705,36.9880195 C17.4301705,36.3501659 17.5832824,35.9028488 17.8860731,35.6460683 C18.0721417,35.4883122 18.3852315,35.4090927 18.8225958,35.4090927 C19.4055194,35.4090927 19.7934485,35.6515317 19.9898162,36.1377756 C20.1092846,36.4403122 20.1683322,36.927239 20.1683322,37.6026537 L20.1683322,37.7180683 L20.1683322,38.5601171 L20.1683322,38.5737756 L20.1690188,38.5730927 Z M48.8016213,34.1135805 C49.0687087,34.1135805 49.2849878,34.3287024 49.2849878,34.594361 C49.2849878,34.8600195 49.0687087,35.0751415 48.8016213,35.0751415 C48.5345338,35.0751415 48.3182547,34.8600195 48.3182547,34.594361 C48.3182547,34.3287024 48.5345338,34.1135805 48.8016213,34.1135805 Z M43.5120532,38.9118244 C43.7791406,38.9118244 43.9954197,39.1269463 43.9954197,39.3926049 C43.9954197,39.6575805 43.7791406,39.8733854 43.5120532,39.8733854 C43.2456523,39.8733854 43.0286866,39.6575805 43.0286866,39.3926049 C43.0286866,39.1269463 43.2456523,38.9118244 43.5120532,38.9118244 Z M44.5446999,38.9118244 C44.8111008,38.9118244 45.0280664,39.1269463 45.0280664,39.3926049 C45.0280664,39.6575805 44.8111008,39.8733854 44.5446999,39.8733854 C44.2776124,39.8733854 44.0613333,39.6575805 44.0613333,39.3926049 C44.0613333,39.1269463 44.2776124,38.9118244 44.5446999,38.9118244 Z M35.3064939,38.9118244 C35.5735814,38.9118244 35.7898605,39.1269463 35.7898605,39.3926049 C35.7898605,39.6575805 35.5735814,39.8733854 35.3064939,39.8733854 C35.0394064,39.8733854 34.8224408,39.6575805 34.8224408,39.3926049 C34.8224408,39.1269463 35.0394064,38.9118244 35.3064939,38.9118244 Z M24.0853865,36.8384585 C24.352474,36.8384585 24.568753,37.0535805 24.568753,37.319239 C24.568753,37.5842146 24.352474,37.8000195 24.0853865,37.8000195 C23.8189856,37.8000195 23.6020199,37.5842146 23.6020199,37.319239 C23.6020199,37.0535805 23.8189856,36.8384585 24.0853865,36.8384585 Z M5.96120044,38.5662634 L5.94609524,38.5662634 L5.60966113,38.5662634 L5.60966113,38.5457756 C5.44968328,38.5252878 5.32334884,38.4884098 5.22997121,38.4344585 C5.15307198,38.3900683 4.8852979,38.1565073 4.42939535,37.7365073 C4.14033666,38.3477268 3.6720753,38.653678 3.0273577,38.653678 C2.60441196,38.653678 2.25561905,38.5157268 1.97960576,38.2425561 C1.70496567,37.9680195 1.56695903,37.6197268 1.56695903,37.1990439 C1.56695903,36.7578732 1.86357032,36.2408976 2.45679291,35.6515317 L2.23982724,35.405678 L2.75477741,34.8880195 L5.05145515,37.3158244 C5.25262901,37.5275317 5.38170986,37.6511415 5.43801107,37.6846049 C5.54580731,37.7488 5.72020377,37.7897756 5.96120044,37.8027512 L6.16786711,37.8027512 L6.16786711,34.1135805 L6.91763455,34.1135805 L6.91763455,36.4020683 C7.40580731,35.8147512 7.85072425,35.5210927 8.25375858,35.5210927 C8.41785604,35.5210927 8.6073577,35.5791415 8.81951717,35.695239 C9.29670432,35.9595317 9.5349546,36.4368976 9.5349546,37.1259707 C9.5349546,37.393678 9.50131118,37.6190439 9.43471096,37.8027512 L9.69424585,37.8027512 L9.93730233,37.8027512 L10.6177231,37.8027512 C10.9733821,37.8027512 11.1512115,37.6128976 11.1512115,37.2345561 L11.1512115,36.171922 L11.9016656,36.171922 L11.9016656,37.3008 C11.9016656,37.4831415 11.966206,37.6340683 12.0959734,37.7488 C12.2250543,37.8655805 12.3822857,37.9236293 12.5669812,37.9236293 C12.9144009,37.9236293 13.0874241,37.7651902 13.0874241,37.4469463 L13.0874241,36.171922 L13.8378782,36.171922 L13.8378782,37.3008 C13.8378782,37.4804098 13.901732,37.6292878 14.0308128,37.7481171 C14.1598937,37.8648976 14.3157519,37.9236293 14.4963278,37.9236293 C14.8540465,37.9236293 15.0325626,37.7651902 15.0325626,37.4469463 L15.0325626,36.171922 L15.78233,36.171922 L15.78233,37.3431415 C15.78233,37.7214829 15.6958184,38.0274341 15.5227951,38.2582634 C15.3305471,38.5211902 15.0483544,38.6529951 14.6789635,38.6529951 C14.3205581,38.6529951 13.973825,38.4822634 13.6456301,38.1414829 C13.3531384,38.4822634 13.0421085,38.6529951 12.7118538,38.6529951 C12.3658073,38.6529951 12.0190742,38.4474341 11.6695947,38.0363122 C11.363371,38.3900683 11.0303699,38.5662634 10.6699048,38.5662634 L9.93730233,38.5662634 L9.69424585,38.5662634 L5.96120044,38.5662634 Z M53.2928106,39.8731122 L53.2928106,34.1139902 L53.4212049,34.1139902 L53.4212049,39.8731122 L53.2928106,39.8731122 Z M0.295512735,39.8731122 L0.295512735,34.1139902 L0.424593577,34.1139902 L0.424593577,39.8731122 L0.295512735,39.8731122 Z M123.82835,16.2489659 L123.82835,22.3748195 C123.82835,23.5132585 123.361462,24.5458439 122.610321,25.2936488 C121.858494,26.0414537 120.818981,26.5058439 119.675105,26.5058439 L117.670919,26.5058439 C116.526357,26.5058439 115.48753,26.0414537 114.73639,25.2936488 C113.983876,24.5458439 113.516988,23.5132585 113.516988,22.3748195 L113.516988,12.000478 L117.789014,12.000478 L117.789014,22.2573561 L119.557697,22.2573561 L119.557697,16.2489659 L123.829723,16.2489659 L123.82835,16.2489659 Z M22.391887,22.1438537 L22.391887,26.6231707 C22.391887,27.7616098 21.9249989,28.7941951 21.1731717,29.542 C20.4213444,30.2898049 19.3825183,30.7535122 18.2379557,30.7535122 L18.1205471,30.7535122 L18.1205471,26.5057073 L18.1205471,22.1431707 L22.391887,22.1431707 L22.391887,22.1438537 Z M105.707872,12.0006829 L105.707872,26.5053659 L101.435845,26.5053659 L101.435845,26.4001951 L101.435845,12.0006829 L105.707872,12.0006829 Z M99.6673001,16.2489659 L99.6673001,26.6226244 C99.6673001,27.7610634 99.200412,28.7943317 98.4492713,29.5421366 C97.6974441,30.2899415 96.6579313,30.7536488 95.5133688,30.7536488 L95.3959601,30.7536488 L95.3959601,26.5058439 L95.3959601,16.2482829 L99.6673001,16.2482829 L99.6673001,16.2489659 Z M67.069856,12.0006829 L67.069856,22.3743415 C67.069856,23.5120976 66.6029679,24.5460488 65.8511406,25.2938537 C65.0993134,26.0416585 64.0598007,26.5053659 62.9152381,26.5053659 L60.911052,26.5053659 C59.7671761,26.5053659 58.7276633,26.0416585 57.9758361,25.2938537 C57.2246955,24.5460488 56.7571207,23.5127805 56.7571207,22.3743415 L56.7571207,12.0006829 L61.0291473,12.0006829 L61.0291473,22.257561 L62.7978295,22.257561 L62.7978295,12.0006829 L67.0691694,12.0006829 L67.069856,12.0006829 Z M43.2104983,26.5055707 L42.1641196,26.5055707 C41.019557,26.5055707 39.9807309,26.0411805 39.2289037,25.2940585 C38.4770764,24.5462537 38.0101883,23.5129854 38.0101883,22.3745463 L38.0101883,16.2486927 L42.2815282,16.2486927 L42.2815282,22.2570829 L43.2104983,22.2570829 L43.2104983,26.5062537 L43.2104983,26.5055707 Z M28.4318405,26.5055707 L24.1605006,26.5055707 L24.1605006,20.4971805 L22.3918184,20.4971805 L22.3918184,24.9123024 L18.1197918,24.9123024 L18.1197918,20.3797171 C18.1197918,19.241278 18.58668,18.2086927 19.3385072,17.4608878 C20.0903344,16.7130829 21.1291606,16.2486927 22.2737231,16.2486927 L24.2779092,16.2486927 C25.4224718,16.2486927 26.4612979,16.7130829 27.2138117,17.4608878 C27.9649524,18.2086927 28.4318405,19.241278 28.4318405,20.3797171 L28.4318405,26.5055707 Z M34.472412,12.0006829 L34.472412,26.5053659 L30.201072,26.5053659 L30.201072,26.4001951 L30.201072,12.0006829 L34.472412,12.0006829 Z M111.747825,16.2489659 L111.747825,26.6226244 C111.747825,27.7610634 111.280937,28.7943317 110.529796,29.5421366 C109.777969,30.2899415 108.739143,30.7536488 107.593894,30.7536488 L107.476485,30.7536488 L107.476485,26.5058439 L107.476485,16.2482829 L111.748512,16.2482829 L111.747825,16.2489659 Z M16.3515903,12.0006829 L16.3515903,26.5053659 L12.0802503,26.5053659 L12.0802503,26.4001951 L12.0802503,12.0006829 L16.3515903,12.0006829 Z M10.3113621,16.2489659 L10.3113621,22.3748195 C10.3113621,23.5132585 9.84447398,24.5458439 9.09333333,25.2936488 C8.34150609,26.0414537 7.30267996,26.5058439 6.15811739,26.5058439 L4.15393134,26.5058439 C3.00936877,26.5058439 1.97054264,26.0414537 1.21871539,25.2936488 C0.466888151,24.5458439 -1.0658141e-14,23.5132585 -1.0658141e-14,22.3748195 L-1.0658141e-14,16.2489659 L4.27202658,16.2489659 L4.27202658,22.2573561 L6.04070875,22.2573561 L6.04070875,16.2489659 L10.3120487,16.2489659 L10.3113621,16.2489659 Z M118.672806,27.3011805 C119.6313,27.3011805 120.408532,28.0742537 120.408532,29.0276195 C120.408532,29.9809854 119.6313,30.7540585 118.672806,30.7540585 C117.714312,30.7540585 116.937767,29.9809854 116.937767,29.0276195 C116.937767,28.0742537 117.714312,27.3011805 118.672806,27.3011805 Z M109.612224,12.0006829 C110.570718,12.0006829 111.347949,12.7737561 111.347949,13.726439 C111.347949,14.6804878 110.570718,15.453561 109.612224,15.453561 C108.65373,15.453561 107.877185,14.6804878 107.877185,13.726439 C107.877185,12.7737561 108.65373,12.0006829 109.612224,12.0006829 Z M5.15581838,12.0006829 C6.11431229,12.0006829 6.89154374,12.7737561 6.89154374,13.726439 C6.89154374,14.6804878 6.11431229,15.453561 5.15581838,15.453561 C4.19732447,15.453561 3.42009302,14.6804878 3.42009302,13.726439 C3.42009302,12.7737561 4.19732447,12.0006829 5.15581838,12.0006829 Z" id="Combined-Shape"></path>
        </g>
    </g>
</svg>